<svg xmlns="http://www.w3.org/2000/svg" width="20" height="20" viewBox="0">
  <path d="M15.3 0H4.7C2.1 0 0 2.1 0 4.7v10.6C0 17.9 2.1 20 4.7 20h10.6c2.6 0 4.7-2.1 4.7-4.7V4.7C20 2.1 17.9 0 15.3 0zm-1.8 11.8h-1.7v1.7c0 1-.8 1.8-1.8 1.8s-1.8-.8-1.8-1.8v-1.7H6.5c-1 0-1.8-.8-1.8-1.8s.8-1.8 1.8-1.8h1.7V6.5c0-1 .8-1.8 1.8-1.8s1.8.8 1.8 1.8v1.7h1.7c1 0 1.8.8 1.8 1.8s-.8 1.8-1.8 1.8z"
    fill="#FFF" fill-rule="evenodd" />
</svg>